transcript
# vsim -c -coverage alu_tb -do "run 10000ns; coverage report -memory -cvg -details -file coverage_rep.txt;exit" 
# Start time: 16:35:33 on Feb 11,2019
# ** Note: (vsim-3812) Design is being optimized...
# ** Warning: alu_tb.sv(23): (vopt-2240) Treating stand-alone use of function 'randomize' as an implicit VOID cast.
# //  Questa Sim-64
# //  Version 10.5c linux_x86_64 Jul 20 2016
# //
# //  Copyright 1991-2016 Mentor Graphics Corporation
# //  All Rights Reserved.
# //
# //  QuestaSim and its associated documentation contain trade
# //  secrets and commercial or financial information that are the property of
# //  Mentor Graphics Corporation and are privileged, confidential,
# //  and exempt from disclosure under the Freedom of Information Act,
# //  5 U.S.C. Section 552. Furthermore, this information
# //  is prohibited from disclosure under the Trade Secrets Act,
# //  18 U.S.C. Section 1905.
# //
# Loading sv_std.std
# Loading work.alu_tb_sv_unit(fast)
# Loading work.alu_tb(fast)
# Loading std.standard
# Loading std.textio(body)
# Loading ieee.std_logic_1164(body)
# Loading ieee.numeric_std(body)
# Loading work.alu(behavioral)#1
# run 10000ns
#         10  clk=1 a=00000000 b=00000000 op=000 r=00000000
#         30  clk=1 a=00111001 b=01110110 op=010 r=00000000
#         50  clk=1 a=01110000 b=00010100 op=110 r=11000110
#         70  clk=1 a=00000010 b=10000111 op=010 r=01110100
#         90  clk=1 a=00010010 b=01000111 op=010 r=11111101
#        110  clk=1 a=00010110 b=00101001 op=000 r=11101101
#        130  clk=1 a=01011110 b=00011010 op=000 r=00111111
#        150  clk=1 a=00011111 b=00001111 op=011 r=01111000
#        170  clk=1 a=00011110 b=10000010 op=010 r=11110000
#        190  clk=1 a=00011101 b=01111001 op=010 r=11100001
#        210  clk=1 a=01110001 b=00101000 op=011 r=11100010
#        230  clk=1 a=00011101 b=00100111 op=011 r=11011111
#        250  clk=1 a=00111010 b=11010011 op=001 r=11111010
#        270  clk=1 a=00010001 b=00010101 op=011 r=01100111
#        290  clk=1 a=01110111 b=00010100 op=100 r=11101110
#        310  clk=1 a=01100111 b=00110011 op=100 r=10001000
#        330  clk=1 a=00110101 b=10001101 op=100 r=10001000
#        350  clk=1 a=01110100 b=10000010 op=010 r=01000010
#        370  clk=1 a=01111011 b=01111001 op=100 r=10001011
#        390  clk=1 a=00000011 b=00011011 op=110 r=10000100
#        410  clk=1 a=00100110 b=10010001 op=010 r=00011011
#        430  clk=1 a=00001101 b=01100010 op=001 r=11011001
#        450  clk=1 a=00001101 b=00111001 op=001 r=10101011
#        470  clk=1 a=01111001 b=01100010 op=110 r=11010100
#        490  clk=1 a=01000000 b=01100111 op=010 r=01111011
#        510  clk=1 a=01111001 b=10100101 op=000 r=10111111
#        530  clk=1 a=00001100 b=01101111 op=000 r=00011110
#        550  clk=1 a=01110001 b=01011010 op=010 r=01111011
#        570  clk=1 a=00011110 b=01110001 op=000 r=10001110
#        590  clk=1 a=01001110 b=01000000 op=011 r=10001111
#        610  clk=1 a=01010000 b=01110010 op=110 r=10111111
#        630  clk=1 a=00101100 b=00011010 op=011 r=01110010
#        650  clk=1 a=00110010 b=10101101 op=011 r=11110111
#        670  clk=1 a=01011010 b=01100001 op=010 r=11011111
#        690  clk=1 a=00001001 b=00101011 op=011 r=10100101
#        710  clk=1 a=00010011 b=11010100 op=010 r=11110110
#        730  clk=1 a=00101101 b=11011000 op=010 r=11101100
#        750  clk=1 a=01000110 b=01100011 op=011 r=11010010
#        770  clk=1 a=00000100 b=11111000 op=011 r=10111101
#        790  clk=1 a=01111111 b=11101110 op=001 r=11111111
#        810  clk=1 a=00110100 b=00110001 op=010 r=10010001
#        830  clk=1 a=00111110 b=01001110 op=101 r=11001011
#        850  clk=1 a=01001010 b=10010110 op=010 r=00001110
#        870  clk=1 a=01010101 b=01110111 op=011 r=10110101
#        890  clk=1 a=01111100 b=01101110 op=010 r=10101010
#        910  clk=1 a=01010100 b=11001001 op=010 r=10000011
#        930  clk=1 a=00010010 b=01001100 op=011 r=10101011
#        950  clk=1 a=01101111 b=11011110 op=010 r=11111111
#        970  clk=1 a=00000010 b=01110011 op=001 r=10010000
#        990  clk=1 a=01001011 b=10011010 op=100 r=10001111
#       1010  clk=1 a=01000010 b=00111100 op=110 r=00100100
#       1030  clk=1 a=01111011 b=00010011 op=010 r=01111110
#       1050  clk=1 a=00001111 b=10101101 op=011 r=10000100
#       1070  clk=1 a=01010100 b=00010000 op=001 r=11110010
#       1090  clk=1 a=00011110 b=00011000 op=010 r=01000100
#       1110  clk=1 a=01010001 b=10010110 op=000 r=11100001
#       1130  clk=1 a=00110010 b=01100011 op=110 r=11100111
#       1150  clk=1 a=00110011 b=00000110 op=011 r=01110011
#       1170  clk=1 a=00000101 b=00001101 op=000 r=11111101
#       1190  clk=1 a=01001011 b=00000011 op=100 r=00010010
#       1210  clk=1 a=01001111 b=11100001 op=100 r=10110100
#       1230  clk=1 a=01001110 b=00001011 op=100 r=00010000
#       1250  clk=1 a=01001011 b=11110011 op=101 r=10110000
#       1270  clk=1 a=00110110 b=01100111 op=000 r=01000011
#       1290  clk=1 a=00101010 b=10111100 op=001 r=10011101
#       1310  clk=1 a=00001000 b=01110110 op=001 r=01101110
#       1330  clk=1 a=00000111 b=11000010 op=010 r=10010010
#       1350  clk=1 a=00110011 b=01111001 op=001 r=11111000
#       1370  clk=1 a=00011000 b=00111110 op=110 r=10111010
#       1390  clk=1 a=00010111 b=00110011 op=001 r=00111110
#       1410  clk=1 a=01110111 b=00010101 op=100 r=11100100
#       1430  clk=1 a=01000011 b=00001010 op=001 r=10001000
#       1450  clk=1 a=00010001 b=11011100 op=010 r=00111001
#       1470  clk=1 a=01010111 b=00101001 op=010 r=11101110
#       1490  clk=1 a=00000101 b=00000111 op=101 r=10101000
#       1510  clk=1 a=00101010 b=11010000 op=100 r=00000101
#       1530  clk=1 a=00001100 b=00101100 op=101 r=00000101
#       1550  clk=1 a=01010110 b=11100000 op=011 r=00001100
#       1570  clk=1 a=00101010 b=00001100 op=110 r=10111111
#       1590  clk=1 a=01110100 b=00111001 op=101 r=00101110
#       1610  clk=1 a=01111100 b=01100110 op=000 r=00110000
#       1630  clk=1 a=01111011 b=01110001 op=011 r=11100010
#       1650  clk=1 a=00011001 b=00010000 op=110 r=10001110
#       1670  clk=1 a=00001110 b=11110101 op=011 r=00011001
#       1690  clk=1 a=00100100 b=11100001 op=010 r=11111011
#       1710  clk=1 a=01011110 b=01011111 op=011 r=11011011
#       1730  clk=1 a=01100011 b=10010101 op=011 r=10100001
#       1750  clk=1 a=01001011 b=00100100 op=001 r=11111110
#       1770  clk=1 a=01010100 b=01011010 op=011 r=00100111
#       1790  clk=1 a=01100111 b=11001110 op=110 r=10101111
#       1810  clk=1 a=01101000 b=11101011 op=010 r=11101111
#       1830  clk=1 a=00101010 b=11001100 op=011 r=10010111
#       1850  clk=1 a=00000001 b=00010010 op=101 r=11110111
#       1870  clk=1 a=00101100 b=11011111 op=001 r=00000000
#       1890  clk=1 a=01010000 b=10001001 op=010 r=01001101
#       1910  clk=1 a=01111100 b=10011011 op=011 r=10101111
#       1930  clk=1 a=01111010 b=11100101 op=110 r=11100111
#       1950  clk=1 a=00010010 b=10100000 op=000 r=11111111
#       1970  clk=1 a=00011000 b=11000101 op=000 r=10110010
#       1990  clk=1 a=01000101 b=11110001 op=000 r=11011101
#       2010  clk=1 a=00010110 b=00100010 op=001 r=00110110
#       2030  clk=1 a=01001110 b=10111010 op=101 r=11110100
#       2050  clk=1 a=01000110 b=01011010 op=101 r=00001010
#       2070  clk=1 a=00101111 b=11111011 op=010 r=01000010
#       2090  clk=1 a=01110001 b=00101110 op=110 r=11010000
#       2110  clk=1 a=01011101 b=01111110 op=011 r=01111111
#       2130  clk=1 a=01111001 b=11001110 op=010 r=10100011
#       2150  clk=1 a=01100101 b=10101000 op=010 r=10000110
#       2170  clk=1 a=00110011 b=00001011 op=001 r=10011010
#       2190  clk=1 a=01100100 b=00001000 op=011 r=00101000
#       2210  clk=1 a=01001010 b=10110110 op=011 r=11111111
#       2230  clk=1 a=00100111 b=10011110 op=110 r=11111101
#       2250  clk=1 a=00011011 b=11101111 op=010 r=10111111
#       2270  clk=1 a=00110111 b=11111101 op=101 r=11100100
#       2290  clk=1 a=01010100 b=00101010 op=100 r=00110101
#       2310  clk=1 a=00001011 b=10000001 op=000 r=10000001
#       2330  clk=1 a=01100001 b=11010110 op=100 r=10001100
#       2350  clk=1 a=01011100 b=01010011 op=010 r=00001000
#       2370  clk=1 a=01100010 b=01110010 op=000 r=10100011
#       2390  clk=1 a=00110100 b=00011010 op=000 r=11010100
#       2410  clk=1 a=00010011 b=11001110 op=000 r=01001110
#       2430  clk=1 a=00110111 b=01111011 op=100 r=11100001
#       2450  clk=1 a=01011101 b=11101111 op=001 r=10000000
#       2470  clk=1 a=01110001 b=00100110 op=100 r=01101110
#       2490  clk=1 a=01101100 b=01000111 op=001 r=10001000
#       2510  clk=1 a=00111100 b=00000011 op=100 r=00100101
#       2530  clk=1 a=00111111 b=00001010 op=101 r=11000000
#       2550  clk=1 a=00011001 b=11001100 op=011 r=00001010
#       2570  clk=1 a=01100010 b=10011100 op=101 r=11110111
#       2590  clk=1 a=00010101 b=10110000 op=001 r=00000000
#       2610  clk=1 a=01011011 b=10011110 op=001 r=01100101
#       2630  clk=1 a=01001110 b=10010111 op=011 r=10111101
#       2650  clk=1 a=01110110 b=11001110 op=000 r=11111001
#       2670  clk=1 a=00101000 b=11100100 op=011 r=01000100
#       2690  clk=1 a=01011110 b=11011101 op=000 r=11011111
#       2710  clk=1 a=00000001 b=01010001 op=100 r=00111011
#       2730  clk=1 a=01100110 b=10100001 op=011 r=10101110
#       2750  clk=1 a=01110011 b=00010011 op=010 r=11011111
#       2770  clk=1 a=01110110 b=00010110 op=110 r=10001100
#       2790  clk=1 a=01101111 b=01110111 op=001 r=01110110
#       2810  clk=1 a=01100100 b=01100111 op=010 r=11111000
#       2830  clk=1 a=00111001 b=11000100 op=100 r=10011011
#       2850  clk=1 a=00000000 b=01000100 op=011 r=00000010
#       2870  clk=1 a=01110010 b=10110001 op=010 r=11111111
#       2890  clk=1 a=00000100 b=10010100 op=101 r=10001101
#       2910  clk=1 a=01000000 b=11000011 op=110 r=00000100
#       2930  clk=1 a=01000100 b=10011000 op=001 r=11000011
#       2950  clk=1 a=01101111 b=10101001 op=011 r=10101100
#       2970  clk=1 a=01100100 b=00010100 op=001 r=11010110
#       2990  clk=1 a=00101110 b=10011000 op=101 r=01010000
#       3010  clk=1 a=01101111 b=11101100 op=000 r=00001000
#       3030  clk=1 a=01100000 b=10111011 op=000 r=01011011
#       3050  clk=1 a=00111000 b=11011111 op=000 r=00011011
#       3070  clk=1 a=00000110 b=10100010 op=100 r=00010111
#       3090  clk=1 a=01110001 b=10011000 op=110 r=01011001
#       3110  clk=1 a=00101011 b=01101110 op=001 r=11111001
#       3130  clk=1 a=01100001 b=11110100 op=011 r=10111101
#       3150  clk=1 a=00011101 b=00010011 op=001 r=10011111
#       3170  clk=1 a=00001011 b=00000100 op=000 r=00001010
#       3190  clk=1 a=01001001 b=00101111 op=001 r=00001111
#       3210  clk=1 a=00101011 b=01111001 op=100 r=00011010
#       3230  clk=1 a=00111111 b=10101001 op=110 r=10000100
#       3250  clk=1 a=00101001 b=00010011 op=101 r=10111111
#       3270  clk=1 a=00100001 b=01100101 op=101 r=00000001
#       3290  clk=1 a=00100111 b=10110011 op=011 r=00100001
#       3310  clk=1 a=01001000 b=11111001 op=010 r=11011100
#       3330  clk=1 a=01110101 b=11001110 op=010 r=10110111
#       3350  clk=1 a=01110101 b=11101011 op=101 r=10001010
#       3370  clk=1 a=00100010 b=10011101 op=011 r=01100001
#       3390  clk=1 a=00100001 b=10011010 op=000 r=11111111
#       3410  clk=1 a=00010000 b=10101011 op=010 r=10111011
#       3430  clk=1 a=00001100 b=01010110 op=100 r=11101111
#       3450  clk=1 a=01001011 b=10000001 op=000 r=10100001
#       3470  clk=1 a=00010011 b=00011000 op=001 r=11001100
#       3490  clk=1 a=00010001 b=01100001 op=000 r=11111011
#       3510  clk=1 a=00101100 b=00010101 op=101 r=01110010
#       3530  clk=1 a=01100010 b=01110011 op=000 r=00000100
#       3550  clk=1 a=01011111 b=00100100 op=010 r=11010101
#       3570  clk=1 a=01011100 b=01110000 op=110 r=10100000
#       3590  clk=1 a=01000101 b=01110100 op=011 r=01111100
#       3610  clk=1 a=00110101 b=11000010 op=001 r=10111011
#       3630  clk=1 a=00101100 b=01010101 op=000 r=01110011
#       3650  clk=1 a=00100101 b=01000100 op=101 r=10000001
#       3670  clk=1 a=00110000 b=00111110 op=011 r=00000100
#       3690  clk=1 a=01001101 b=00110010 op=001 r=11001111
#       3710  clk=1 a=01010110 b=01000101 op=011 r=00011011
#       3730  clk=1 a=00000000 b=11110100 op=001 r=10111011
#       3750  clk=1 a=01001110 b=10010000 op=110 r=00001100
#       3770  clk=1 a=00010000 b=10000111 op=101 r=11011110
#       3790  clk=1 a=01000110 b=00000000 op=001 r=00000000
#       3810  clk=1 a=00101110 b=11000001 op=100 r=01000110
#       3830  clk=1 a=01001010 b=00010111 op=001 r=00010000
#       3850  clk=1 a=00001010 b=01010100 op=101 r=00110011
#       3870  clk=1 a=01111000 b=11010010 op=011 r=00000000
#       3890  clk=1 a=00001100 b=01001000 op=001 r=10101111
#       3910  clk=1 a=00010100 b=10000111 op=110 r=11000100
#       3930  clk=1 a=01010011 b=00011101 op=100 r=10010111
#       3950  clk=1 a=01000010 b=00110100 op=100 r=10100000
#       3970  clk=1 a=01011101 b=11000010 op=010 r=10001001
#       3990  clk=1 a=00000011 b=10101011 op=101 r=10100010
#       4010  clk=1 a=00000101 b=01011100 op=010 r=00000011
#       4030  clk=1 a=00100001 b=00010011 op=001 r=11111010
#       4050  clk=1 a=01011000 b=10110011 op=010 r=00001110
#       4070  clk=1 a=01111111 b=00101100 op=000 r=10100111
#       4090  clk=1 a=01011100 b=10011010 op=000 r=10101011
#       4110  clk=1 a=00111101 b=10100101 op=100 r=11110110
#       4130  clk=1 a=00010011 b=01110101 op=011 r=01000010
#       4150  clk=1 a=01101100 b=10100110 op=101 r=11101110
#       4170  clk=1 a=00001010 b=00011011 op=101 r=00100100
#       4190  clk=1 a=00110000 b=11101111 op=010 r=00001010
#       4210  clk=1 a=00011100 b=10011100 op=100 r=11001111
#       4230  clk=1 a=00110101 b=11011111 op=001 r=01100011
#       4250  clk=1 a=00001010 b=01001110 op=010 r=01010110
#       4270  clk=1 a=01001110 b=11010100 op=110 r=11110101
#       4290  clk=1 a=01011110 b=11001001 op=100 r=11011110
#       4310  clk=1 a=00111101 b=11110000 op=100 r=00100000
#       4330  clk=1 a=00100100 b=01100101 op=100 r=00000010
#       4350  clk=1 a=00110001 b=11111000 op=000 r=10011010
#       4370  clk=1 a=01000100 b=11110101 op=101 r=00101001
#       4390  clk=1 a=00001111 b=10111001 op=110 r=01000100
#       4410  clk=1 a=00101001 b=10100000 op=000 r=10111111
#       4430  clk=1 a=01001010 b=10000000 op=100 r=11001001
#       4450  clk=1 a=01000111 b=00010100 op=000 r=00110101
#       4470  clk=1 a=01111000 b=10111110 op=010 r=01011011
#       4490  clk=1 a=01110101 b=01011011 op=101 r=10000111
#       4510  clk=1 a=01011001 b=10110010 op=110 r=01010001
#       4530  clk=1 a=00001001 b=10100000 op=010 r=11111011
#       4550  clk=1 a=00101001 b=10001001 op=010 r=11110110
#       4570  clk=1 a=00001111 b=10000010 op=101 r=11010110
#       4590  clk=1 a=01000011 b=10001010 op=110 r=00000010
#       4610  clk=1 a=01011010 b=01101000 op=000 r=11001011
#       4630  clk=1 a=00110110 b=01000110 op=110 r=11000010
#       4650  clk=1 a=01101011 b=00100010 op=011 r=01110110
#       4670  clk=1 a=00001101 b=11001011 op=000 r=11011101
#       4690  clk=1 a=01111010 b=10110010 op=010 r=11011000
#       4710  clk=1 a=01001101 b=11111010 op=011 r=10000101
#       4730  clk=1 a=01111101 b=10100111 op=001 r=10110111
#       4750  clk=1 a=00101100 b=11010110 op=101 r=11010110
#       4770  clk=1 a=01011011 b=10111111 op=001 r=00000100
#       4790  clk=1 a=00111001 b=10001000 op=101 r=10011100
#       4810  clk=1 a=01000110 b=01000010 op=001 r=00001000
#       4830  clk=1 a=01101100 b=11100110 op=100 r=00000100
#       4850  clk=1 a=00001100 b=01110011 op=010 r=00010001
#       4870  clk=1 a=00110101 b=10011001 op=101 r=11110011
#       4890  clk=1 a=01111101 b=01000011 op=010 r=00010001
#       4910  clk=1 a=01011000 b=00101010 op=101 r=10000010
#       4930  clk=1 a=00000010 b=11011001 op=010 r=00001000
#       4950  clk=1 a=01011010 b=00001111 op=110 r=11111101
#       4970  clk=1 a=00010010 b=00001011 op=100 r=01011111
#       4990  clk=1 a=01001000 b=11011111 op=000 r=11100100
#       5010  clk=1 a=00101011 b=11001001 op=001 r=00100111
#       5030  clk=1 a=01101110 b=10010111 op=001 r=01100010
#       5050  clk=1 a=00101011 b=10101010 op=110 r=11010111
#       5070  clk=1 a=01001101 b=10110100 op=000 r=10101011
#       5090  clk=1 a=01110000 b=10100011 op=110 r=00000001
#       5110  clk=1 a=01000110 b=00000001 op=000 r=11110011
#       5130  clk=1 a=00101101 b=01001101 op=000 r=01000111
#       5150  clk=1 a=01111100 b=11011010 op=100 r=01111010
#       5170  clk=1 a=01111110 b=10111010 op=110 r=00000001
#       5190  clk=1 a=00010101 b=01001010 op=110 r=11111110
#       5210  clk=1 a=01101001 b=11110010 op=010 r=01011111
#       5230  clk=1 a=00111110 b=01111010 op=001 r=10010110
#       5250  clk=1 a=01001011 b=11101101 op=110 r=11000100
#       5270  clk=1 a=00001111 b=01010110 op=010 r=11101111
#       5290  clk=1 a=00010001 b=10001000 op=011 r=11110000
#       5310  clk=1 a=00001001 b=01000111 op=001 r=11111111
#       5330  clk=1 a=00110000 b=10101110 op=001 r=11000010
#       5350  clk=1 a=00100100 b=10111000 op=011 r=10000010
#       5370  clk=1 a=01001111 b=10100101 op=011 r=11011111
#       5390  clk=1 a=01011011 b=00011110 op=001 r=11111010
#       5410  clk=1 a=00111011 b=00101010 op=010 r=00111101
#       5430  clk=1 a=01011001 b=00111110 op=110 r=11000100
#       5450  clk=1 a=01111100 b=00110101 op=001 r=01111111
#       5470  clk=1 a=01000110 b=11010111 op=110 r=01000111
#       5490  clk=1 a=00000010 b=01010110 op=001 r=11010111
#       5510  clk=1 a=00101101 b=11010101 op=101 r=10101100
#       5530  clk=1 a=01010100 b=10010101 op=101 r=00000101
#       5550  clk=1 a=01101000 b=10010110 op=100 r=00010100
#       5570  clk=1 a=01000011 b=10001001 op=011 r=00000001
#       5590  clk=1 a=00110000 b=00111000 op=110 r=11111110
#       5610  clk=1 a=00010011 b=00010001 op=110 r=00111000
#       5630  clk=1 a=00110011 b=10111111 op=110 r=00010011
#       5650  clk=1 a=00000111 b=01000110 op=100 r=10111111
#       5670  clk=1 a=01010011 b=10111011 op=101 r=10111000
#       5690  clk=1 a=01110101 b=10001000 op=000 r=00010011
#       5710  clk=1 a=00011110 b=00011110 op=011 r=11111101
#       5730  clk=1 a=01001000 b=11101011 op=001 r=11100001
#       5750  clk=1 a=00010101 b=00111001 op=110 r=01011101
#       5770  clk=1 a=01001001 b=00110001 op=000 r=00111101
#       5790  clk=1 a=01110101 b=10101001 op=000 r=01111010
#       5810  clk=1 a=00111111 b=00010101 op=110 r=00011110
#       5830  clk=1 a=00000111 b=10100111 op=101 r=00111111
#       5850  clk=1 a=01000001 b=01011011 op=000 r=00000111
#       5870  clk=1 a=01000110 b=11001110 op=001 r=10011100
#       5890  clk=1 a=01011000 b=01101111 op=101 r=01111000
#       5910  clk=1 a=01111110 b=11111111 op=100 r=01001000
#       5930  clk=1 a=00100001 b=11100110 op=100 r=00000000
#       5950  clk=1 a=00110000 b=10000010 op=010 r=00011000
#       5970  clk=1 a=00111100 b=00100000 op=110 r=11001111
#       5990  clk=1 a=00100011 b=10001111 op=100 r=00111100
#       6010  clk=1 a=00010011 b=00011100 op=010 r=01010000
#       6030  clk=1 a=01010010 b=10111000 op=010 r=11101100
#       6050  clk=1 a=00000100 b=10111100 op=000 r=10101101
#       6070  clk=1 a=00000001 b=11111111 op=100 r=11000000
#       6090  clk=1 a=00010110 b=10010110 op=101 r=00000000
#       6110  clk=1 a=01010000 b=01100011 op=010 r=00010110
#       6130  clk=1 a=00100100 b=01100110 op=110 r=10101111
#       6150  clk=1 a=00011011 b=10000101 op=101 r=01100110
#       6170  clk=1 a=00011000 b=01111110 op=100 r=00000001
#       6190  clk=1 a=01110101 b=11001111 op=101 r=10000001
#       6210  clk=1 a=01010000 b=01101000 op=110 r=01000101
#       6230  clk=1 a=01111010 b=10111001 op=011 r=01111000
#       6250  clk=1 a=01110111 b=10100010 op=001 r=11000111
#       6270  clk=1 a=00111111 b=10101100 op=110 r=11010101
#       6290  clk=1 a=00010000 b=10001011 op=000 r=10111111
#       6310  clk=1 a=01111100 b=10000000 op=010 r=10011011
#       6330  clk=1 a=01010100 b=01101101 op=010 r=10000011
#       6350  clk=1 a=00001000 b=11100011 op=011 r=10101011
#       6370  clk=1 a=01100000 b=11011000 op=001 r=11111111
#       6390  clk=1 a=00110101 b=11000000 op=110 r=10001000
#       6410  clk=1 a=00011011 b=11011011 op=101 r=11110101
#       6430  clk=1 a=01000001 b=10110000 op=010 r=00011011
#       6450  clk=1 a=01111010 b=11111001 op=000 r=10111110
#       6470  clk=1 a=01110011 b=11111100 op=001 r=01110011
#       6490  clk=1 a=01110000 b=10010110 op=010 r=01110111
#       6510  clk=1 a=00011010 b=10101111 op=100 r=10001111
#       6530  clk=1 a=00010001 b=00110011 op=001 r=01000000
#       6550  clk=1 a=01100010 b=00101101 op=001 r=11011110
#       6570  clk=1 a=00010101 b=01010101 op=011 r=00110101
#       6590  clk=1 a=00000101 b=01001001 op=011 r=11101010
#       6610  clk=1 a=00100100 b=00011000 op=100 r=11111110
#       6630  clk=1 a=01001101 b=00010011 op=001 r=11000011
#       6650  clk=1 a=00110111 b=11111001 op=010 r=00111010
#       6670  clk=1 a=00001111 b=10011110 op=011 r=11001000
#       6690  clk=1 a=01010011 b=10011101 op=100 r=11110001
#       6710  clk=1 a=00011000 b=01101100 op=000 r=00100000
#       6730  clk=1 a=01001001 b=11101010 op=001 r=10000100
#       6750  clk=1 a=00011100 b=11001011 op=100 r=01011111
#       6770  clk=1 a=00111001 b=01100000 op=011 r=00100000
#       6790  clk=1 a=00011010 b=01100100 op=100 r=11011111
#       6810  clk=1 a=01001000 b=11000101 op=011 r=10000001
#       6830  clk=1 a=00111000 b=01111000 op=100 r=10111111
#       6850  clk=1 a=01101111 b=00111101 op=100 r=10000111
#       6870  clk=1 a=01001000 b=10101000 op=011 r=10000000
#       6890  clk=1 a=00011110 b=00010001 op=110 r=11110111
#       6910  clk=1 a=01000010 b=10111010 op=010 r=00011111
#       6930  clk=1 a=00011101 b=00100111 op=100 r=10111101
#       6950  clk=1 a=00001011 b=10101011 op=001 r=11000000
#       6970  clk=1 a=00101000 b=00100010 op=011 r=01100000
#       6990  clk=1 a=01000011 b=11110100 op=000 r=11011111
#       7010  clk=1 a=00010000 b=10010101 op=000 r=00110111
#       7030  clk=1 a=01000011 b=10001001 op=100 r=10100101
#       7050  clk=1 a=01100000 b=10001101 op=101 r=00110100
#       7070  clk=1 a=01101011 b=01100000 op=101 r=00000000
#       7090  clk=1 a=01100000 b=10101010 op=011 r=01100000
#       7110  clk=1 a=01011110 b=11101000 op=101 r=11011111
#       7130  clk=1 a=00100001 b=00010111 op=100 r=01001000
#       7150  clk=1 a=01111111 b=10001000 op=000 r=11001000
#       7170  clk=1 a=01100110 b=10100010 op=100 r=00000111
#       7190  clk=1 a=00011011 b=00100110 op=000 r=00011001
#       7210  clk=1 a=01100111 b=11010101 op=110 r=01000001
#       7230  clk=1 a=01111000 b=11000001 op=001 r=11110111
#       7250  clk=1 a=00011110 b=11100111 op=110 r=10110111
#       7270  clk=1 a=00011100 b=01000010 op=101 r=11111111
#       7290  clk=1 a=00100110 b=10011000 op=110 r=00000000
#       7310  clk=1 a=01001111 b=11001110 op=000 r=10111110
#       7330  clk=1 a=01110011 b=11111110 op=100 r=00011101
#       7350  clk=1 a=00101011 b=11111011 op=100 r=00000000
#       7370  clk=1 a=00100000 b=01010100 op=000 r=00000100
#       7390  clk=1 a=01101100 b=01010110 op=101 r=01110100
#       7410  clk=1 a=00101101 b=01011100 op=010 r=01000100
#       7430  clk=1 a=01101000 b=11111010 op=000 r=11010010
#       7450  clk=1 a=01010111 b=00001101 op=011 r=01100010
#       7470  clk=1 a=00010110 b=01010010 op=001 r=11111010
#       7490  clk=1 a=01111100 b=01110110 op=000 r=11000100
#       7510  clk=1 a=01001001 b=11001100 op=101 r=11110010
#       7530  clk=1 a=00110100 b=11111010 op=101 r=01001000
#       7550  clk=1 a=00011001 b=00011010 op=100 r=00110000
#       7570  clk=1 a=01101000 b=00011001 op=100 r=11100100
#       7590  clk=1 a=01000010 b=10001111 op=001 r=10000110
#       7610  clk=1 a=01101001 b=11100000 op=001 r=10110011
#       7630  clk=1 a=01000000 b=10000110 op=001 r=10001001
#       7650  clk=1 a=01000010 b=10010101 op=011 r=10111010
#       7670  clk=1 a=01100100 b=10000001 op=001 r=11111111
#       7690  clk=1 a=01011001 b=00100001 op=010 r=11100011
#       7710  clk=1 a=00000001 b=11000011 op=011 r=10100110
#       7730  clk=1 a=01010011 b=10110010 op=100 r=11111110
#       7750  clk=1 a=00011100 b=10111110 op=001 r=00001100
#       7770  clk=1 a=00010010 b=10110001 op=010 r=01011110
#       7790  clk=1 a=00010101 b=01011011 op=110 r=11101101
#       7810  clk=1 a=00001100 b=00000011 op=110 r=01011111
#       7830  clk=1 a=00011100 b=00000010 op=001 r=00001111
#       7850  clk=1 a=00101010 b=00111101 op=100 r=00011010
#       7870  clk=1 a=01000100 b=11101000 op=011 r=11000000
#       7890  clk=1 a=00110111 b=01110000 op=001 r=10111111
#       7910  clk=1 a=01110000 b=01110110 op=100 r=11000111
#       7930  clk=1 a=00011110 b=11101101 op=101 r=10001001
#       7950  clk=1 a=01110000 b=00111001 op=001 r=00001100
#       7970  clk=1 a=01110100 b=11000111 op=100 r=00110111
#       7990  clk=1 a=00011101 b=01010110 op=011 r=00001000
#       8010  clk=1 a=00110000 b=01101100 op=011 r=11101011
#       8030  clk=1 a=00110111 b=00100101 op=010 r=11011111
#       8050  clk=1 a=01000110 b=11001010 op=010 r=11001000
#       8070  clk=1 a=01000100 b=11111011 op=011 r=10111001
#       8090  clk=1 a=00010111 b=11100100 op=010 r=10111111
#       8110  clk=1 a=00101000 b=10011011 op=100 r=11101000
#       8130  clk=1 a=01010110 b=10110110 op=001 r=01000100
#       8150  clk=1 a=00111011 b=10111100 op=110 r=10100000
#       8170  clk=1 a=01000000 b=01110101 op=001 r=10111111
#       8190  clk=1 a=01111010 b=00111110 op=000 r=11001011
#       8210  clk=1 a=01010100 b=00100001 op=001 r=10111000
#       8230  clk=1 a=00111100 b=00010101 op=101 r=00110011
#       8250  clk=1 a=01101010 b=11111001 op=100 r=00010100
#       8270  clk=1 a=00100111 b=00100000 op=000 r=00000100
#       8290  clk=1 a=01101011 b=00100001 op=011 r=01000111
#       8310  clk=1 a=01111110 b=10100011 op=100 r=11011110
#       8330  clk=1 a=01100010 b=00101111 op=001 r=00000000
#       8350  clk=1 a=00110101 b=11011100 op=100 r=00110011
#       8370  clk=1 a=01110010 b=10100010 op=110 r=00000010
#       8390  clk=1 a=00011101 b=01110001 op=100 r=11110010
#       8410  clk=1 a=01100010 b=11000001 op=001 r=10000010
#       8430  clk=1 a=00010011 b=00110011 op=100 r=10100001
#       8450  clk=1 a=01010011 b=10010010 op=010 r=11001100
#       8470  clk=1 a=00000110 b=11001101 op=000 r=10101100
#       8490  clk=1 a=01111010 b=10001011 op=101 r=11010011
#       8510  clk=1 a=00111010 b=11110011 op=011 r=00001010
#       8530  clk=1 a=00100011 b=01011011 op=110 r=11001101
#       8550  clk=1 a=00011110 b=01011100 op=100 r=01111011
#       8570  clk=1 a=01010110 b=11000010 op=010 r=10100001
#       8590  clk=1 a=01110011 b=01100010 op=011 r=10101001
#       8610  clk=1 a=00110011 b=01000100 op=101 r=10011101
#       8630  clk=1 a=00011111 b=10000101 op=110 r=00000000
#       8650  clk=1 a=01011111 b=10011010 op=110 r=10011111
#       8670  clk=1 a=00001000 b=11101010 op=010 r=11011111
#       8690  clk=1 a=01110011 b=00001110 op=110 r=11110111
#       8710  clk=1 a=00010010 b=10010011 op=101 r=01111111
#       8730  clk=1 a=00011101 b=00000011 op=101 r=00010010
#       8750  clk=1 a=01110000 b=11101000 op=011 r=00000001
#       8770  clk=1 a=00100111 b=00101001 op=101 r=10011111
#       8790  clk=1 a=00000000 b=10011000 op=011 r=00100001
#       8810  clk=1 a=01001110 b=11110000 op=100 r=11111111
#       8830  clk=1 a=00001100 b=11010111 op=001 r=00000001
#       8850  clk=1 a=01011011 b=01110101 op=000 r=00110101
#       8870  clk=1 a=00001111 b=01010100 op=100 r=11010000
#       8890  clk=1 a=00111111 b=10001100 op=110 r=10100000
#       8910  clk=1 a=00101111 b=10011001 op=011 r=10111111
#       8930  clk=1 a=01111000 b=11010101 op=100 r=11110110
#       8950  clk=1 a=01100111 b=01100010 op=110 r=00000010
#       8970  clk=1 a=01011101 b=01111111 op=000 r=01100111
#       8990  clk=1 a=00011111 b=11001111 op=100 r=11011100
#       9010  clk=1 a=01111110 b=10010010 op=100 r=00100000
#       9030  clk=1 a=00101100 b=11001110 op=011 r=00000001
#       9050  clk=1 a=00100111 b=01011001 op=101 r=11110011
